"VertexLitGeneric"
{
	"$baseTexture" "models\weapons\v_models\csgo\eq_molotov/v_eq_molotov_bottle"
//	"$translucent" "1"
	"$bumpmap" "models\weapons\v_models\csgo\eq_molotov/v_eq_molotov_bottle_normal"
	"$phong" "1"
	"$phongBoost" "160"
	"$phongExponent" "80"
	"$phongTint" "[1.6 1.1 1.0]"
	"$phongFresnelRanges" "[0 .1 1]"
		
	"$nocull" "1"
}
