"VertexLitGeneric"
{
"$baseTexture" "models\weapons\v_models\csgo\smg_ump45\smg_ump45"

	"$phong" "1"
	"$phongboost" "1"
	"$phongalbedoboost" "40"
	"$phongfresnelranges" "[.83 .83 1]"
	"$phongexponenttexture" "models\weapons\v_models\csgo\rif_sg556\rif_sg556_exponent"

	"$basemapalphaphongmask" "1"

	"$envmap" "env_cubemap"
	"$envmapfresnel" "1"
	"$envmaptint" 		"[.15 .15 .15]"

	"$phongalbedotint" "1"

	"$phongdisablehalflambert" "1"
}


