"VertexLitGeneric"
{
	"$baseTexture" "models\weapons\w_models\csgo\w_knife_css\knife_css"
	"$phong" "1"
	"$phongboost" "2"
	"$phongalbedoboost" "60"
	"$phongfresnelranges" "[.83 .83 1]"
	"$phongexponenttexture" "models\weapons\w_models\csgo\w_knife_css\knife_css_exponent"
	"$basemapalphaphongmask" "1"
	"$envmap" "env_cubemap"
	"$envmapfresnel" "1"
	"$envmaptint" 		"[.2 .2 .2]"
	"$phongalbedotint" "1"
	"$phongdisablehalflambert" "1"	
}