
"VertexLitGeneric"
{
		"$baseTexture" "models\weapons\v_models\csgo\knife_butterfly\knife_butterfly"
	
	"$phongalbedotint" "1"
	"$phongdisablehalflambert" "1"
		"$phongexponenttexture" "models\weapons\v_models\csgo\knife_butterfly\knife_butterfly_exponent"
	"$phong" "1"
	"$phongboost" "9"
	"$phongfresnelranges" "[.3 0.5 1]"
	"$phongalbedoboost" "60"
	

	
	 
	"$basemapalphaphongmask" "1"

	
	"$envmap" "env_cubemap"
 
	"$envmapfresnel" "1"
	
	"$envmaptint" 		"[.8 .8 .8]"
}


