"vertexlitgeneric"
{
	"$basetexture"             "models/weapons/v_models/csgo/arms/st6/sleeve_st6_generalist"
	"$bumpmap"                 "models/weapons/v_models/csgo/arms/st6/sleeve_st6_generalist_normal"
	"$phongexponenttexture" "models/weapons/v_models/csgo/arms/balkan/sleeve_balkan_exp"
	"$phong"                "1"
	"$phongboost"           "1.4"
	"$phongtint"            "[1 1 1]"
	"$phongfresnelranges"   "[.2 .2 1]"
	"$rimlight"             "1"
	"$rimlightexponent"     "8"
	"$rimlightboost"        ".2"
	"$rimmask"              1
}