Subrect
{
    $Material "decals\csgo\Decals_bulletsheet"
    $Pos "128 128"
    $Size "64 64"
    $modelmaterial "decals\csgo\concrete\concrete1"
    $decal 1
    $decalscale "0.13"
    $decalScaleVariation "0.12"
}
