Subrect
{
    $Material "decals\csgo\Decals_bulletsheet"
    $Pos "192 128"
    $Size "64 64"
    $modelmaterial "decals\csgo\concrete\concrete3"
    $decal 1
    $decalscale "0.13"
    $decalScaleVariation "0.12"
}
