VertexLitGeneric
{
	"$basetexture"	"models\weapons\v_models\csgo\pist_hkp2000\pist_hkp2000"

	"$phong" "1"
	"$phongboost" "4"
	"$phongalbedoboost" "40"
	"$phongfresnelranges" "[.8 .8 1]"
//	"$phongexponent" 12
	"$phongexponenttexture" "models\weapons\v_models\csgo\pist_hkp2000\pist_hkp2000_exponent"

	"$basemapalphaphongmask" "1"
	
	"$envmap" "env_cubemap"
	"$envmapfresnel" "1"
	"$envmaptint" 		"[.3 .3 .3]"

	"$phongalbedotint" "1"
	"$phongdisablehalflambert" "1"
}

