VertexlitGeneric
{
	$basetexture	"models\weapons\uid\uid_charset"
	$alphatest 1
	$AlphaTestReference .44
	Proxies
	{
		WeaponLabelText
		{
			displayDigit		12
		}
		StatTrakIllum
		{
			resultVar	$color2
			minVal		0.75
			maxVal		1.5
		}
	}
}