"SpriteCard"
{
	"$basetexture" "particle/particle_debris_burst/particle_debris_burst_002"
	$vertexcolor 1
	$vertexalpha 1
	$translucent 1
	//$splinetype 2
	$blendframes 0
	//$maxsize .85
	$startfadesize .675
	$endfadesize .75	
}