VertexLitGeneric
{
$baseTexture "models/weapons/v_models/csgo/arms/t_arms_balkan"
$bumpMap "models/weapons/v_models/csgo/arms/t_arms_balkan_normal"
$phongexponenttexture "models/weapons/v_models/csgo/arms/t_arms_balkan_exp"
$phong 1
$phongBoost "0.5"
$phongTint "[1 1 1]"
$phongFresnelRanges "[.2 .2 1]"
$rimlight 1
$rimlightexponent 9
$rimlightboost ".2"
$rimmask 1
}