Subrect
{
    $Material "decals/csgo/decals_bulletsheet"
    $Pos "0 0"
    $Size "64 64"
    $decal 1
    $decalscale 0.1
    $decalScaleVariation "0.25"
    $modelmaterial "decals/csgo/brick/brick1"
}
