unlitgeneric
{
	"$alphatest"               "1"
	"$alphatestreference"      "0.4"
	"$vertexcolor"             "1"
	"$tablet_radar_level_name" "none"
	"$levelnamereplacevar"     "$basetexture"
	"$basetexture"             "models/weapons/v_models/tablet/tablet_radar_%levelname%"	
}