"unlitgeneric"
{
	"$basetexture" "models/weapons/v_models/csgo/c4/compass_arrow/compass_arrow"
	"$multiply"    "1"
	"proxies"
	{
		"c4compassarrow"
		{
			resultvar      "$frame"
		}
	}
}
