"spritecard"
{
	"$basetexture" "particle\particle_flares\particle_flare_004b_mod"
	$mod2x 1
	"$translucent" 1
	//$depthblend 1
	//$depthblendscale 170
	$ignorez 1
	//$inversedepthblend 1
	$STARTFADESIZE 7.0
	$ENDFADESIZE 8.0
	$overbrightfactor 10
	$depthblend 0
}