VertexLitGeneric
{
	$basetexture	"models\weapons\stattrack\cut_digit_d"
	$alphatest		"1"
	$bumpmap		"models\weapons\stattrack\cut_digit_n"
	$envmap			"env_cubemap"
	$envmaptint		"[0.5 0.5 0.5]"
	Proxies
	{
		StatTrakDigit
		{
			resultVar	$frame
			resultVar2	$bumpframe
			trimzeros		1
			displayDigit		0
		}
		StatTrakIllum
		{
			resultVar	$color2
			minVal		1.0
			maxVal		2.0
		}
	}
}