VertexLitGeneric
{
	$phong "1"
	$basetexture "models\weapons\stattrack\stattrak_module"
	$basemapalphaphongmask "1"
	$phongexponenttexture "models\weapons\stattrack\stattrak_module_exponent"
	$phongboost "2"	
	"$envmap" "env_cubemap"
	"$envmapfresnel" "1"
	"$envmaptint" 		"[.06 .06 .06]"
	"$basealphaenvmapmask" 1
	"$phongalbedotint" "1"
	"$phongdisablehalflambert" "1"
}