UnLitGeneric
{
	$basetexture 			"models\weapons\stattrack\stat_digit"
	$basealphaenvmapmask 	"1"
	$envmap 				"env_cubemap"
	$envmaptint				"[0.2 0.2 0.2]"
	Proxies
	{
		StatTrakDigit
		{
			resultVar	$frame
			trimzeros		0
			displayDigit		8
		}
		StatTrakIllum
		{
			resultVar	$color2
			minVal		0.5
			maxVal		1.5
		}
	}
}